STAP in a Longitudinal Data Setting • rstap
…
Data Structure Complexities

Spatial-temporal aggregated predictor (STAP) models extension in the longitudinal setting incorporates heirarchical variance components to account for within subject or group-level correlation.

This setting also involves a different data structure, since exposure to built environment features now occurs across time, and subjects can move across time or space. dropping out of studies and built-environment features - stores - may close or open, the map and covariate space is dynamic. This requires a secondary id to join on in addition to the typical ‘id_key’. We’ll demonstrate this and the stap model using the simple case of homogenously distributed built environment features, with subjects measured across two time points.

Below we can see what the data for this kind of model might look like.

list('Subject Spatial-Temporal Data' = subj_data,
     "BEF Spatial-Temporal Data" = bef_data)
#> $`Subject Spatial-Temporal Data`
#> # A tibble: 167 x 5
#>           x      y date          ID class  
#>       <dbl>  <dbl> <date>     <int> <chr>  
#>  1 -0.701   -0.412 1974-05-11     1 Subject
#>  2 -0.415    0.622 1976-03-04     2 Subject
#>  3 -0.924   -0.314 1976-04-15     3 Subject
#>  4 -0.700   -0.700 1986-12-24     4 Subject
#>  5 -0.00932 -0.262 1987-07-17     5 Subject
#>  6 -0.624    0.272 1974-01-31     6 Subject
#>  7  0.296   -0.401 1988-06-05     7 Subject
#>  8  0.607   -0.418 1975-01-01     8 Subject
#>  9 -0.0141  -0.708 1985-09-21     9 Subject
#> 10 -0.557    0.561 1971-08-03    10 Subject
#> # ... with 157 more rows
#> 
#> $`BEF Spatial-Temporal Data`
#> # A tibble: 55 x 6
#>         x       y date_open  date_close    ID class      
#>     <dbl>   <dbl> <date>     <date>     <int> <chr>      
#>  1  0.624  0.916  1969-05-14 NA             1 Coffee_Shop
#>  2 -0.351 -0.796  1963-10-23 NA             2 Coffee_Shop
#>  3  0.893 -0.839  1960-09-12 NA             3 Coffee_Shop
#>  4  0.199 -0.140  1965-04-20 NA             4 Coffee_Shop
#>  5 -0.822  0.841  1962-06-28 NA             5 Coffee_Shop
#>  6 -0.673 -0.549  1968-02-01 NA             6 Coffee_Shop
#>  7  0.177  0.0337 1963-10-15 NA             7 Coffee_Shop
#>  8  0.364 -0.404  1963-12-30 NA             8 Coffee_Shop
#>  9  0.430  0.812  1968-10-09 NA             9 Coffee_Shop
#> 10 -0.383 -0.621  1961-05-18 2002-09-23    10 Coffee_Shop
#> # ... with 45 more rows

The third and final dataset involves the subject specific data and the dates at which the measurements were taken.

subj_fdata %>% arrange(ID)
#> # A tibble: 291 x 7
#>       ID   sex DOB        Income measure_date   Age measure_ID
#>    <int> <int> <date>      <dbl> <date>       <dbl>      <dbl>
#>  1     1     1 1956-08-11   99.2 2000-02-19    43.6          1
#>  2     1     1 1956-08-11  196.  2001-07-20    45.0          2
#>  3     2     0 1953-09-23   62.6 2000-03-20    46.5          1
#>  4     2     0 1953-09-23  155.  2001-12-06    48.2          2
#>  5     3     1 1968-10-01   21.8 2000-03-10    31.5          1
#>  6     3     1 1968-10-01  117.  2002-07-02    33.8          2
#>  7     4     1 1954-06-01   89.9 2000-10-11    46.4          1
#>  8     4     1 1954-06-01  145.  2002-01-07    47.6          2
#>  9     5     1 1956-09-22   50.6 2000-10-14    44.1          1
#> 10     5     1 1956-09-22  107.  2003-06-28    46.8          2
#> # ... with 281 more rows
…
subj_fdata <- subj_fdata %>% left_join(cbind(lme_inf$fr,y),by=c("ID","measure_ID"))  %>% 
    mutate(sex = sex.x, Coffee_Shop= Coffee_Shop.x,subj_ID=ID,
           centered_income = `I((Income - mean(Income))/sd(Income))`,
           centered_age = `I((Age - mean(Age))/sd(Age))`) %>%
    select(-Coffee_Shop.x,-sex.x,-sex.y,
           -ID,`I((Age - mean(Age))/sd(Age))`,
           `I((Income - mean(Income))/sd(Income))`)

The final datasets passed to the stap_glmer function will then be the subject specific data, and the td data above containing the subject ID, the BEF class label and the distance or time. These are displayed below

#> $subject_data
#> # A tibble: 291 x 8
#>    subj_ID Income measure_ID   Age ran_int     y   sex Coffee_Shop
#>      <int>  <dbl>      <dbl> <dbl>   <dbl> <dbl> <int>       <dbl>
#>  1       1   99.2          1  43.6   0.148  24.6     1      -0.509
#>  2       2   62.6          1  46.5   0.243  23.9     0      -0.611
#>  3       3   21.8          1  31.5   0.480  18.6     1      -0.686
#>  4       4   89.9          1  46.4   1.03   25.8     1       0.353
#>  5       5   50.6          1  44.1   1.01   24.4     1       0.807
#>  6       6   19.5          1  40.7  -0.184  23.1     1      -0.722
#>  7       7   67.2          1  46.7   0.127  27.1     1       0.789
#>  8       8   79.1          1  41.6  -0.387  21.8     0      -0.571
#>  9       9   66.8          1  34.0  -0.345  24.4     1       4.12 
#> 10      10   67.2          1  48.9  -1.79   22.5     0      -0.883
#> # ... with 281 more rows
#> 
#> $distance_data
#> # A tibble: 17,875 x 6
#>    subj_ID measure_ID date       bef_ID class        dist
#>      <int>      <dbl> <date>      <int> <chr>       <dbl>
#>  1       1          1 1974-05-11      1 Coffee_Shop  1.88
#>  2       2          1 1976-03-04      1 Coffee_Shop  1.08
#>  3       3          1 1976-04-15      1 Coffee_Shop  1.98
#>  4       4          1 1986-12-24      1 Coffee_Shop  2.09
#>  5       5          1 1987-07-17      1 Coffee_Shop  1.34
#>  6       6          1 1974-01-31      1 Coffee_Shop  1.40
#>  7       7          1 1988-06-05      1 Coffee_Shop  1.36
#>  8       8          1 1975-01-01      1 Coffee_Shop  1.33
#>  9       9          1 1985-09-21      1 Coffee_Shop  1.74
#> 10       9          1 1991-11-14      1 Coffee_Shop  1.10
#> # ... with 17,865 more rows
#> 
#> $time_data
#> # A tibble: 17,875 x 6
#>    subj_ID measure_ID date       bef_ID class       time            
#>      <int>      <dbl> <date>      <int> <chr>       <time>          
#>  1       1          1 1974-05-11      1 Coffee_Shop 25.7945205479452
#>  2       2          1 1976-03-04      1 Coffee_Shop 24.0602739726027
#>  3       3          1 1976-04-15      1 Coffee_Shop 23.9178082191781
#>  4       4          1 1986-12-24      1 Coffee_Shop 13.8082191780822
#>  5       5          1 1987-07-17      1 Coffee_Shop 13.2547945205479
#>  6       6          1 1974-01-31      1 Coffee_Shop 26.6904109589041
#>  7       7          1 1988-06-05      1 Coffee_Shop 12.5205479452055
#>  8       8          1 1975-01-01      1 Coffee_Shop 25.3780821917808
#>  9       9          1 1985-09-21      1 Coffee_Shop 6.15068493150685
#> 10       9          1 1991-11-14      1 Coffee_Shop 8.33698630136986
#> # ... with 17,865 more rows
…
